current;rms_voltage;ripple_voltage
0;26.59;0.042
0.00249;24.97;0.104
0.00311;24.74;0.120
0.00401;24.44;0.150
0.00493;24.17;0.174
0.00661;23.7;0.222
0.01157;22.48;0.368
0.01573;21.56;0.480
0.01887;20.93;0.564
0.0266;19.51;0.768
0.035;18.17;0.976
0.05074;15.93;1.38
0.0646;14.15;1.68
0.0802;12.33;2.00
0.112;8.90;2.6
0.137;6.51;3.02

