current;rms_voltage;ripple_voltage
0;15.01;0.00496
0.00148;15.01;0.00528
0.00235;15.01;0.00512
0.00928;15.01;0.00536
0.02416;15.01;0.0116
0.02724;15.01;0.0344
0.03171;15.00;0.0728
0.03457;14.99;0.144
0.04023;14.97;0.266
0.04887;14.94;0.468
0.0607;14.85;0.744
0.0769;14.73;1.05
0.0987;14.53;1.5
0.111;14.35;1.8
0.1323;14.1;2.18
0.137;13.77;1.64
0.1414;13.2;0.9
0.1435;12.56;0.42
0.1444;11.86;0.037
