current;rms_voltage;ripple_voltage
0.00160;16.2;0.0126
0.00212;16.18;0.0124
0.00378;16.13;0.0120
0.00541;16.1;0.0122
0.01391;15.9;0.0138
0.01846;15.78;0.0144
0.02551;15.66;0.018
0.03072;15.54;0.0194
0.04158;15.31;0.0216
0.05255;15.09;0.0254
0.0675;14.8;0.0328
0.0860;14.49;0.0352
0.0947;14.33;0.0456
0.106;14.06;0.44
0.1128;13.73;0.856
0.1198;13.31;1.01
0.1633;10.51;1.18
0.1925;8.84;1.26
0.2401;6.29;1.36